<?xml version="1.0" encoding="UTF-8" standalone="no"?>
<!-- Created with Inkscape (http://www.inkscape.org/) -->

<svg
   width="720"
   height="256"
   viewBox="0 0 190.49999 67.733333"
   version="1.1"
   id="svg1"
   inkscape:version="1.3.2 (091e20ef0f, 2023-11-25, custom)"
   sodipodi:docname="logo-text-rectangular-color.svg"
   xml:space="preserve"
   xmlns:inkscape="http://www.inkscape.org/namespaces/inkscape"
   xmlns:sodipodi="http://sodipodi.sourceforge.net/DTD/sodipodi-0.dtd"
   xmlns="http://www.w3.org/2000/svg"
   xmlns:svg="http://www.w3.org/2000/svg"><sodipodi:namedview
     id="namedview1"
     pagecolor="#cbcbcb"
     bordercolor="#000000"
     borderopacity="0.25"
     inkscape:showpageshadow="2"
     inkscape:pageopacity="0.0"
     inkscape:pagecheckerboard="0"
     inkscape:deskcolor="#d1d1d1"
     inkscape:document-units="px"
     showgrid="true"
     inkscape:zoom="0.57432538"
     inkscape:cx="497.97556"
     inkscape:cy="253.34071"
     inkscape:window-width="1309"
     inkscape:window-height="721"
     inkscape:window-x="0"
     inkscape:window-y="0"
     inkscape:window-maximized="1"
     inkscape:current-layer="layer3" /><defs
     id="defs1"><filter
       inkscape:collect="always"
       style="color-interpolation-filters:sRGB"
       id="filter6"
       x="-0.23255482"
       y="-1.5218648"
       width="1.4651096"
       height="4.0437296"><feGaussianBlur
         inkscape:collect="always"
         stdDeviation="5.5424546"
         id="feGaussianBlur6" /></filter><filter
       inkscape:collect="always"
       style="color-interpolation-filters:sRGB"
       id="filter5"
       x="-0.22849215"
       y="-1.276745"
       width="1.4569843"
       height="3.55349"><feGaussianBlur
         inkscape:collect="always"
         stdDeviation="5.5424546"
         id="feGaussianBlur5" /></filter><filter
       inkscape:collect="always"
       style="color-interpolation-filters:sRGB"
       id="filter2"
       x="-0.050801538"
       y="-0.067194903"
       width="1.1016031"
       height="1.1343898"><feGaussianBlur
         inkscape:collect="always"
         stdDeviation="1.8046884"
         id="feGaussianBlur2" /></filter><filter
       inkscape:collect="always"
       style="color-interpolation-filters:sRGB"
       id="filter1"
       x="-0.14035527"
       y="-0.19946684"
       width="1.2807105"
       height="1.3989337"><feGaussianBlur
         inkscape:collect="always"
         stdDeviation="3.3271348"
         id="feGaussianBlur1" /></filter></defs><g
     inkscape:groupmode="layer"
     id="layer3"
     inkscape:label="Layer 1"
     transform="matrix(0.7359461,0,0,0.7359461,8.9936757,0.30164079)"><path
       id="text4"
       style="font-size:9.23461px;font-family:'TeX Gyre Chorus';-inkscape-font-specification:'TeX Gyre Chorus';text-align:center;letter-spacing:2.15709px;text-anchor:middle;display:inline;opacity:0.547149;fill:#ffe36a;fill-opacity:1;stroke-width:0.216437;stroke-linecap:round;stroke-linejoin:round;stroke-dashoffset:18.5507;paint-order:markers stroke fill;filter:url(#filter6)"
       d="m 55.904297,62.650391 c -1.259578,-0.128886 -1.791218,1.720452 -0.879174,2.465354 0.546639,0.649427 1.561519,1.494117 0.984314,2.429331 -0.608654,0.910932 -1.611465,1.857161 -1.321937,3.060393 0.615792,1.092944 2.202758,0.799306 2.996094,0.07617 0.318469,-0.07242 0.498179,-0.843887 0.786159,-0.578155 0.559767,1.263297 2.622849,1.753285 3.471653,0.546905 0.508697,-1.122322 -0.547455,-2.089176 -1.175781,-2.896485 -0.415971,-0.469723 -0.495086,-1.204614 0.02344,-1.636718 0.714915,-0.797956 1.379714,-1.97558 0.908204,-3.050782 -0.506558,-0.568965 -1.448651,-0.406481 -2.098901,-0.191863 -0.536573,0.206168 -1.015523,0.589295 -1.289771,1.100066 -0.496499,-0.810773 -1.426851,-1.425563 -2.404297,-1.324218 z m -3.785156,0.01367 c -1.828978,-0.02729 -4.069582,0.100283 -5.174731,1.79729 -1.443978,2.208315 -0.508931,5.796761 2.125902,6.599195 1.39337,0.29519 2.918226,0.381669 4.242188,-0.222656 0.681295,-0.756146 0.302347,-2.031715 -0.523438,-2.517579 1.101925,-0.360059 1.220533,-2.136563 0.16211,-2.61914 0.03237,-0.349311 0.603674,-0.414975 0.602841,-0.822807 0.405552,-0.948912 -0.284209,-2.376815 -1.434872,-2.214303 z m -32.453125,0.002 c -1.842722,-0.01149 -4.103609,0.0817 -5.24089,1.774398 -1.372741,2.195436 -0.538838,5.636087 1.969405,6.596695 1.450301,0.292006 3.048625,0.448042 4.419922,-0.220703 0.675678,-0.758908 0.27917,-2.010392 -0.527344,-2.505859 1.091669,-0.370267 1.210851,-2.169684 0.123047,-2.623047 0.158199,-0.322054 0.631011,-0.444604 0.661114,-0.885687 0.328654,-0.92483 -0.290295,-2.267571 -1.405254,-2.135797 z m 4.441406,0.0059 c -1.200417,0.05204 -1.785291,1.453699 -1.51,2.496399 -0.08132,1.847989 -0.217717,4.058225 1.295156,5.413757 1.921386,1.511619 5.241556,0.804939 6.158203,-1.52539 0.287139,-1.916912 0.313482,-3.899186 -0.15625,-5.789063 -0.922725,-1.292584 -3.317165,-0.234653 -3.001953,1.314453 -0.100702,1.228225 0.388159,2.576346 -0.283203,3.701172 -0.669327,0.237295 -1.084856,-0.74647 -0.802734,-1.236328 0.08251,-1.416163 0.315348,-3.062169 -0.683594,-4.232422 -0.308469,-0.171565 -0.675554,-0.141044 -1.015625,-0.142578 z m 13.21289,0.03516 c -1.781335,0.0445 -3.860124,-0.17607 -5.279033,1.120803 -1.077089,1.351012 -0.512785,3.553035 0.952862,4.383104 -1.13373,0.145321 -1.837142,1.808364 -0.830733,2.556018 1.110847,1.020773 2.710207,0.428109 4.050093,0.506025 1.516977,-0.04018 3.392927,-0.890792 3.483765,-2.608919 0.03982,-1.161368 -0.633644,-2.293652 -1.626954,-2.876953 1.042959,-0.121262 1.72353,-1.412177 1.117188,-2.30664 -0.25272,-0.707084 -1.028701,-0.940014 -1.71068,-0.780717 l -0.09989,0.0046 z m -30.0722651,0.02344 c -0.7930483,-0.09426 -1.7882172,9.95e-4 -2.1330039,0.85487 -0.5400405,1.047801 0.0345,2.217289 -0.1592679,3.325708 -0.036322,1.353083 -0.2532792,2.974319 0.7242892,4.063454 0.8883733,0.614422 2.0378104,0.166363 3.0389344,0.315095 1.8461953,0.03926 3.7789523,-1.116815 4.1735793,-3.00444 0.58398,-2.252752 -0.751375,-5.10756 -3.2019826,-5.453282 C 8.8830811,62.704865 8.062736,62.724224 7.2480469,62.730469 Z m 1.2421875,2.986328 c 1.4123413,-0.02375 1.6169666,2.430097 0.2050781,2.621094 -0.7732981,-0.06535 -0.4177207,-1.018318 -0.4804687,-1.516407 0.016569,-0.34692 -0.039044,-0.909355 0.2753906,-1.104687 z"
       transform="matrix(2.2205544,0,0,2.1356814,85.835307,-107.11318)" /><path
       id="text5"
       style="font-style:normal;font-variant:normal;font-weight:normal;font-stretch:normal;font-size:11.5142px;font-family:'Handel Gothic';-inkscape-font-specification:'Handel Gothic';text-align:start;letter-spacing:1.97034px;text-anchor:start;display:inline;opacity:0.547149;fill:#00c1ff;fill-opacity:1;stroke-width:0.269868;stroke-linecap:round;stroke-linejoin:round;stroke-dashoffset:18.5507;paint-order:markers stroke fill;filter:url(#filter5)"
       d="m 54.412109,71.824219 c -1.314908,0.01739 -1.745531,2.03895 -0.673828,2.701172 1.369511,1.591827 2.679482,3.61015 2.249686,5.805064 -0.03062,1.344212 1.635763,2.427936 2.799142,1.62267 0.924328,-0.498351 1.07014,-1.675908 0.833571,-2.59647 -0.03949,-1.855272 1.151172,-3.405851 2.281664,-4.758999 0.427428,-0.652881 0.808874,-1.489353 0.523437,-2.269531 -1.623134,-1.10543 -4.036021,0.05154 -4.488281,1.882813 -0.519147,-0.08874 -0.432982,-0.84605 -0.851304,-1.112949 -0.61528,-0.811178 -1.635684,-1.384906 -2.674087,-1.27377 z m -8.980468,0.03906 c -1.34411,-0.08815 -1.779215,1.908556 -0.799898,2.64797 0.650314,0.800492 1.568025,1.634554 1.62627,2.699285 -0.707746,1.413636 -2.336308,2.555851 -2.078325,4.310948 0.427224,0.74383 1.463541,0.589157 2.188378,0.563024 1.024933,-0.162458 1.823442,-1.010643 2.178809,-1.932164 0.342877,0.118707 0.333929,0.672524 0.626953,0.90625 0.873056,1.234583 3.090871,1.606138 3.982422,0.216797 0.333368,-0.849666 -0.601083,-1.415857 -0.907732,-2.102941 -0.506668,-0.765816 -1.013335,-1.531633 -1.520002,-2.29745 0.881101,-1.396847 2.39654,-2.806593 2,-4.615234 -1.444356,-0.900915 -3.517287,-0.102467 -4.171875,1.417968 -0.556981,-1.120584 -1.728417,-1.977667 -3.022262,-1.815116 l -0.1,6.46e-4 z m -33.220703,0.0098 c -2.070442,0.174626 -4.4779679,-0.374571 -6.1933599,1.119141 -2.6236155,2.233847 -2.1666253,7.102279 0.9609375,8.662109 1.9580576,0.695887 4.0745164,0.423777 6.0976564,0.265625 1.159271,-0.659113 0.839683,-2.180292 0.834417,-3.281612 0.03593,-1.135192 0.119359,-2.556704 -0.89887,-3.316044 -1.385305,0.06105 -2.829555,-0.266929 -4.1640628,0.236328 1.4171608,-0.939466 3.3607818,0.409119 4.6835568,-0.821626 1.12635,-0.943319 0.07942,-3.030146 -1.320275,-2.863921 z m 14.832031,0.0039 c -1.209318,0.234914 -1.574945,1.708777 -1.283196,2.752325 -0.02042,2.110533 -0.33046,4.50381 1.072258,6.278925 1.640423,1.436979 4.194225,1.624934 6.11458,0.707549 1.130003,-1.102895 -0.203013,-3.329444 -1.720051,-2.819843 -0.648797,0.114133 -1.740697,0.113885 -1.774765,-0.777274 -0.354819,-1.916868 0.462208,-4.054294 -0.664686,-5.803791 -0.473626,-0.436385 -1.157272,-0.326688 -1.74414,-0.337891 z m -7.986328,0.05664 c -2.029529,1.442935 -2.121069,4.171239 -3.344923,6.161861 -0.518574,1.16348 -1.198865,2.555971 -0.582812,3.810795 1.118485,0.445365 2.766213,0.268765 3.265625,-0.986328 -5.92e-4,-0.853355 1.071083,-0.935329 1.698541,-0.823173 0.511498,-0.116722 1.089869,0.180469 1.107204,0.734204 0.617881,1.46977 3.021959,1.876551 3.895427,0.438578 0.229775,-1.087748 -0.727343,-1.928485 -0.936631,-2.941408 -0.934442,-2.215012 -1.756919,-4.563935 -3.352431,-6.402342 -0.583334,0.0026 -1.166667,0.0052 -1.75,0.0078 z m 18.873047,0 c -2.025523,1.444975 -2.129102,4.166674 -3.337507,6.163639 -0.525954,1.16097 -1.207781,2.55287 -0.588275,3.809017 1.118133,0.445699 2.764599,0.268322 3.263672,-0.986328 -0.003,-0.852015 1.069457,-0.929686 1.698447,-0.831612 0.5516,-0.125785 1.127666,0.264711 1.159306,0.834849 0.66314,1.430012 3.121725,1.773786 3.870763,0.246763 0.128802,-1.050102 -0.747824,-1.85944 -0.962022,-2.841799 -0.934442,-2.215012 -1.756919,-4.563935 -3.352431,-6.402342 -0.583985,0.0026 -1.167969,0.0052 -1.751953,0.0078 z M 9.1191406,78.623047 c 0.2403874,0.06954 1.3099614,-0.04456 0.7265625,0.164062 -0.091355,0.05311 -1.0762089,-0.223252 -0.7265625,-0.164062 z"
       transform="matrix(2.2205544,0,0,2.1356814,85.835307,-107.11318)" /><text
       xml:space="preserve"
       style="font-size:19.7222px;font-family:'TeX Gyre Chorus';-inkscape-font-specification:'TeX Gyre Chorus';text-align:center;letter-spacing:4.60686px;text-anchor:middle;display:inline;fill:#ffe36a;fill-opacity:1;stroke-width:0.46224;stroke-linecap:round;stroke-linejoin:round;stroke-dashoffset:18.5507;paint-order:markers stroke fill"
       x="99.768234"
       y="43.060223"
       id="text2"><tspan
         sodipodi:role="line"
         id="tspan1"
         x="99.768234"
         y="43.060223"
         style="font-style:normal;font-variant:normal;font-weight:normal;font-stretch:normal;font-size:19.7222px;font-family:'Handel Gothic';-inkscape-font-specification:'Handel Gothic';text-align:start;letter-spacing:4.60686px;text-anchor:start;fill:#ffe36a;fill-opacity:1;stroke-width:0.46224"
         dx="0">DEUS EX</tspan></text><text
       xml:space="preserve"
       style="font-style:normal;font-variant:normal;font-weight:normal;font-stretch:normal;font-size:24.5907px;font-family:'Handel Gothic';-inkscape-font-specification:'Handel Gothic';text-align:start;letter-spacing:4.20802px;text-anchor:start;display:inline;fill:#00c1ff;fill-opacity:1;stroke-width:0.576352;stroke-linecap:round;stroke-linejoin:round;stroke-dashoffset:18.5507;paint-order:markers stroke fill"
       x="99.380264"
       y="66.181976"
       id="text3"><tspan
         sodipodi:role="line"
         id="tspan2"
         x="99.380264"
         y="66.181976"
         style="letter-spacing:4.20802px;fill:#00c1ff;fill-opacity:1;stroke-width:0.576352"
         dx="0">GALAXY</tspan></text><g
       id="g1"
       transform="matrix(1.3432624,0,0,1.3432624,-35.154114,-141.32514)"><path
         id="path2"
         style="display:inline;mix-blend-mode:normal;fill:#ffe36a;fill-opacity:1;stroke:none;stroke-width:0.424507;stroke-linecap:round;stroke-linejoin:round;stroke-dasharray:none;stroke-dashoffset:18.5507;stroke-opacity:1;paint-order:markers stroke fill;filter:url(#filter2)"
         d="M 63.757512,36.497612 A 22.323222,45.006586 58.275837 0 1 76.153742,42.50333 22.323222,45.006586 58.275837 0 1 51.038281,85.007499 22.323222,45.006586 58.275837 0 1 0.28564071,90.891741 22.323222,45.006586 58.275837 0 1 -1.7352242,83.377746 23.543733,48.006595 58.252117 0 0 -8.47446e-4,94.517782 23.543733,48.006595 58.252117 0 0 53.981806,88.02054 23.543733,48.006595 58.252117 0 0 80.925736,42.902869 23.543733,48.006595 58.252117 0 0 63.757512,36.497612 Z m -6.655232,3.2258 c -5.69419,-0.08323 -12.548805,1.341815 -19.476279,4.109841 l 5.195406,1.897984 C 54.454095,41.392522 65.516957,41.148511 70.093254,45.592908 69.951211,45.272559 69.791577,44.962388 69.615071,44.662524 67.330013,41.398149 62.79647,39.80664 57.10228,39.723412 Z M 10.753693,62.197986 C 2.2028194,71.44243 -0.9852349,81.169113 3.1399896,87.060664 3.4138188,87.403047 3.7145009,87.727609 4.0401803,88.034583 1.5383914,82.89662 4.9524131,73.931686 12.005674,66.060661 Z"
         transform="matrix(0.66986844,0,0,0.66986844,31.087373,93.082395)" /><path
         id="path58"
         style="display:inline;fill:#ffe36a;fill-opacity:1;stroke:none;stroke-width:0.284364;stroke-linecap:round;stroke-linejoin:round;stroke-dasharray:none;stroke-dashoffset:18.5507;stroke-opacity:1;paint-order:markers stroke fill"
         d="m 73.796518,117.53099 a 14.953622,30.148492 58.275837 0 1 8.303847,4.02304 14.953622,30.148492 58.275837 0 1 -16.824058,28.47221 14.953622,30.148492 58.275837 0 1 -33.997592,3.94166 14.953622,30.148492 58.275837 0 1 -1.353714,-5.03338 15.771204,32.158103 58.252117 0 0 1.161804,7.46235 15.771204,32.158103 58.252117 0 0 36.161276,-4.35229 15.771204,32.158103 58.252117 0 0 18.048884,-30.22291 15.771204,32.158103 58.252117 0 0 -11.500447,-4.29068 z m -4.45813,2.16086 c -3.814358,-0.0558 -8.406048,0.89884 -13.046544,2.75306 l 3.480238,1.2714 c 7.792371,-2.90637 15.203033,-3.06983 18.26855,-0.0927 -0.09515,-0.2146 -0.202084,-0.42237 -0.32032,-0.62324 -1.530688,-2.1867 -4.567566,-3.2528 -8.381924,-3.30855 z m -31.047455,15.05501 c -5.727961,6.19256 -7.863538,12.70816 -5.10018,16.65473 0.183429,0.22935 0.384847,0.44676 0.603009,0.65239 -1.675869,-3.44176 0.611076,-9.44708 5.335833,-14.71963 z" /><path
         id="path5-6"
         style="display:inline;fill:#00c1ff;fill-opacity:1;stroke:none;stroke-width:0.71903;stroke-linecap:round;stroke-linejoin:round;stroke-dasharray:none;stroke-dashoffset:18.5507;stroke-opacity:1;paint-order:markers stroke fill"
         d="m 44.900513,121.35607 c -2.175169,0.0532 -4.350314,0.38587 -6.481092,1.0638 -2.130777,2.7117 1.420503,14.23663 1.420503,14.23663 0,0 4.971745,-4.74528 7.930386,-6.08366 17.236675,-1.75476 23.321399,8.11717 23.321399,8.11717 0,0 -9.943665,15.59263 -30.541182,0.6783 0,0 -1.420846,1.35526 -2.131106,2.71111 25.569331,14.2364 36.9338,-3.38941 36.9338,-3.38941 0,-4.38843 -15.226526,-17.7063 -30.452708,-17.33394 z m 0.04353,0.46976 c 1.582502,-0.0278 3.165253,0.0966 4.729161,0.33564 6.344148,1.05797 12.352993,3.81534 17.504567,7.63898 2.320344,1.80691 4.643805,3.71414 6.398938,6.097 0.51863,0.85807 1.30501,1.71456 1.207743,2.78764 -4.11841,5.40982 -10.920514,8.52448 -17.684323,8.48511 -6.362089,-0.0386 -12.471986,-2.3019 -18.022774,-5.26422 0.196197,-0.28997 0.386243,-0.58475 0.608787,-0.85525 0.391055,-0.28122 0.500558,-0.89902 1.006922,-1.01956 3.683906,2.57107 7.721354,4.78844 12.148362,5.73889 6.492774,1.67921 13.876735,-0.737 18.01856,-6.031 0.288233,-0.37618 0.782179,-0.79535 0.518909,-1.32501 -1.455258,-2.20206 -3.580003,-3.89091 -5.859666,-5.18066 -5.420249,-3.02596 -11.863755,-3.79752 -17.962386,-3.04042 -2.814029,1.39268 -5.126753,3.55727 -7.466949,5.60969 -0.570421,-2.15716 -1.140994,-4.31897 -1.49353,-6.52463 -0.264362,-2.12961 -0.805343,-4.42511 0.147457,-6.46564 2.018256,-0.56672 4.101917,-0.93346 6.200222,-0.98656 z m 9.17043,9.48079 c -7.107863,-0.0298 -12.062144,6.30481 -12.85405,7.38339 5.682073,4.74547 11.36403,5.42361 11.36403,5.42361 0,0 -6.52037,-3.71011 -7.102519,-5.42361 4.971815,-6.10132 10.865485,-7.15659 10.865485,-7.15659 -0.779164,-0.15216 -1.537651,-0.22372 -2.272946,-0.2268 z m -0.587723,0.48239 c 0.191506,-0.002 0.382944,-0.009 0.574381,0 -2.870163,1.09183 -5.434038,2.89521 -7.568764,5.09008 -0.499876,0.66072 -1.472244,1.15847 -1.383991,2.11075 1.183817,1.68355 2.944186,2.83056 4.65473,3.92236 -2.863556,-0.92179 -5.526531,-2.42776 -7.879126,-4.29803 0.369995,-0.44147 0.731329,-0.89045 1.126994,-1.30956 2.727813,-2.93068 6.397732,-5.25603 10.475776,-5.5156 z m 4.780421,2.15569 a 4.9718245,4.7454787 0 0 0 -4.972115,4.74531 4.9718245,4.7454787 0 0 0 4.972115,4.74531 4.9718245,4.7454787 0 0 0 4.971411,-4.74531 4.9718245,4.7454787 0 0 0 -4.971411,-4.74531 z m -0.170629,0.45852 c 1.730709,-0.038 3.462266,0.96701 4.236934,2.5152 1.091245,1.92988 -8.7e-4,4.51608 -1.895877,5.47978 -2.349482,1.49241 -5.856663,-0.0176 -6.539373,-2.68652 -0.687811,-2.43971 1.376506,-5.08993 3.852142,-5.28669 0.115088,-0.012 0.230793,-0.0192 0.346174,-0.0218 z" /><path
         id="path1"
         style="display:inline;opacity:0.695276;fill:#00c1ff;fill-opacity:1;stroke:none;stroke-width:1.07339;stroke-linecap:round;stroke-linejoin:round;stroke-dasharray:none;stroke-dashoffset:18.5507;stroke-opacity:1;paint-order:markers stroke fill;filter:url(#filter1)"
         d="m 19.34375,41.871975 c -2.982115,0.22592 -6.01007,0.573981 -8.787109,1.74414 -1.5988631,2.902891 -0.9693531,6.339961 -0.6246907,9.474838 0.6304317,4.106956 1.5119977,8.181133 2.8375807,12.116959 1.275387,0.116982 1.856586,-1.276419 2.805338,-1.860893 3.130009,-2.550361 6.070666,-5.550521 9.942709,-6.955513 8.755127,-0.92056 17.975271,0.264305 25.678627,4.728063 3.015213,1.801211 5.907778,4.026217 7.895592,6.947718 -0.411693,1.025598 -1.37199,1.678366 -2.022999,2.541241 -6.380498,6.729744 -16.634928,9.372339 -25.497149,6.68117 -6.232787,-1.563163 -11.875084,-4.825847 -17.124383,-8.44702 -1.241085,-0.03103 -1.703406,1.35157 -2.508623,2.065629 -0.580171,0.708594 -1.24142,1.507796 -1.208174,2.477339 6.831943,4.050387 14.423715,6.891202 22.290077,8.047842 7.585616,1.05177 15.587488,0.07246 22.355876,-3.63834 4.338133,-2.283045 8.200214,-5.521579 11.029828,-9.542314 0.06125,-2.62225 -1.833406,-4.663277 -3.346885,-6.595529 C 57.652086,55.391506 50.620239,50.737295 43.236328,47.118068 36.040663,43.731934 28.126394,41.557863 20.126121,41.819499 c -0.26079,0.01749 -0.521581,0.03498 -0.782371,0.05248 z m 2.419922,1.453125 c 11.882444,0.390742 23.273242,5.310268 32.620535,12.481194 4.016032,3.062723 7.927084,6.56218 10.264231,11.114509 0.32741,1.008629 -0.425302,1.89102 -1.115786,2.521236 C 56.174751,77.761632 44.403628,81.662168 33.491218,79.929087 26.17086,78.908236 19.20213,76.17635 12.673828,72.78799 c 0.260065,-0.803256 0.980726,-1.45857 1.558594,-2.08789 2.233839,1.247122 4.367273,2.768839 6.671174,3.93592 6.227194,3.346635 13.269345,5.725357 20.422847,5.078705 C 48.880898,79.026108 56.158566,75.04583 60.527344,68.801662 60.974133,67.3163 59.581862,66.205058 58.725881,65.197478 53.754694,59.702126 46.624404,56.677618 39.459832,55.330813 34.486259,54.426466 29.37503,54.388677 24.367188,55.032131 c -3.940887,1.989687 -7.224242,4.975527 -10.546876,7.830078 -0.512911,-0.6185 -0.462061,-1.615939 -0.750371,-2.384234 -1.185463,-4.86204 -2.482929,-9.906787 -1.642207,-14.936079 0.168745,-0.739887 0.898904,-1.083253 1.592766,-1.105993 2.860601,-0.696859 5.799896,-1.061102 8.743172,-1.110803 z m 11.539062,13.351562 c -6.357832,0.410957 -12.090078,4.044845 -16.317623,8.642063 -0.833577,0.902785 -1.982944,1.795223 -2.020267,3.133328 4.971482,3.97966 10.808532,7.147788 17.177734,8.029297 0.49787,-0.496967 -0.215019,-1.141172 -0.721781,-1.242031 -3.262086,-2.049455 -6.753032,-3.97131 -9.270406,-6.93961 0.409131,-1.157243 1.576671,-1.775712 2.289463,-2.720732 3.724867,-3.734106 8.468685,-6.343068 13.478115,-7.919893 0.222795,-0.690961 -0.734534,-0.971102 -1.253904,-0.846749 -1.116718,-0.107166 -2.239183,-0.181943 -3.361331,-0.135673 z m -2.128906,1.921875 c -0.04205,0.435679 -0.861052,0.513494 -1.180552,0.829001 -3.576753,2.071871 -6.796741,4.791316 -9.292104,8.106546 -0.42448,1.408355 0.890861,2.490692 1.798362,3.344876 0.351343,0.422838 1.018234,0.74547 1.211404,1.192233 -0.788245,-0.0581 -1.396572,-0.698194 -2.116306,-0.983599 -1.636863,-0.923866 -3.187554,-1.996598 -4.698148,-3.11601 0.734341,-1.285203 1.969436,-2.297679 3.021511,-3.358006 3.143119,-2.901905 6.974056,-5.17091 11.193333,-6.050197 z m 9.242188,2.009766 c -4.56986,-0.163805 -8.622761,4.681944 -7.417969,9.148437 1.034677,4.541564 6.745063,7.255886 10.920217,5.112762 3.268843,-1.396822 5.440898,-5.380659 4.225069,-8.847976 -1.002002,-3.235383 -4.318897,-5.643062 -7.727317,-5.413223 z m 0.01563,1.490234 c 3.424008,-0.09262 6.814749,3.015199 6.444759,6.54065 -0.410467,3.939355 -5.245456,6.699022 -8.802753,4.840956 -2.892161,-1.153911 -4.689218,-4.932455 -3.114372,-7.774953 0.982808,-2.074751 3.167946,-3.545313 5.472366,-3.606653 z"
         transform="matrix(0.66986844,0,0,0.66986844,31.087373,93.082395)" /></g></g></svg>
